\relax 
\providecommand\hyper@newdestlabel[2]{}
\providecommand\zref@newlabel[2]{}
\providecommand\HyperFirstAtBeginDocument{\AtBeginDocument}
\HyperFirstAtBeginDocument{\ifx\hyper@anchor\@undefined
\global\let\oldcontentsline\contentsline
\gdef\contentsline#1#2#3#4{\oldcontentsline{#1}{#2}{#3}}
\global\let\oldnewlabel\newlabel
\gdef\newlabel#1#2{\newlabelxx{#1}#2}
\gdef\newlabelxx#1#2#3#4#5#6{\oldnewlabel{#1}{{#2}{#3}}}
\AtEndDocument{\ifx\hyper@anchor\@undefined
\let\contentsline\oldcontentsline
\let\newlabel\oldnewlabel
\fi}
\fi}
\global\let\hyper@last\relax 
\gdef\HyperFirstAtBeginDocument#1{#1}
\providecommand\HyField@AuxAddToFields[1]{}
\providecommand\HyField@AuxAddToCoFields[2]{}
\abx@aux@sortscheme{nty}
\@writefile{toc}{\boolfalse {citerequest}\boolfalse {citetracker}\boolfalse {pagetracker}\boolfalse {backtracker}\relax }
\@writefile{lof}{\boolfalse {citerequest}\boolfalse {citetracker}\boolfalse {pagetracker}\boolfalse {backtracker}\relax }
\@writefile{lot}{\boolfalse {citerequest}\boolfalse {citetracker}\boolfalse {pagetracker}\boolfalse {backtracker}\relax }
\@writefile{toc}{\defcounter {refsection}{0}\relax }\@writefile{toc}{\contentsline {section}{\numberline {1}Introduction}{5}{section.1}}
\@writefile{toc}{\defcounter {refsection}{0}\relax }\@writefile{toc}{\contentsline {section}{\numberline {2}Background}{7}{section.2}}
\newlabel{sec:background}{{2}{7}{Background}{section.2}{}}
\@writefile{toc}{\defcounter {refsection}{0}\relax }\@writefile{toc}{\contentsline {subsection}{\numberline {2.1}Market Basket Analysis}{7}{subsection.2.1}}
\abx@aux@cite{Agrawal94fastalgorithms}
\abx@aux@cite{Han04miningfrequent}
\abx@aux@cite{1056489}
\@writefile{toc}{\defcounter {refsection}{0}\relax }\@writefile{toc}{\contentsline {subsection}{\numberline {2.2}Rule-extracting algorithms}{8}{subsection.2.2}}
\abx@aux@cite{Blei03latentdirichlet}
\@writefile{toc}{\defcounter {refsection}{0}\relax }\@writefile{toc}{\contentsline {subsection}{\numberline {2.3}K-means}{9}{subsection.2.3}}
\@writefile{toc}{\defcounter {refsection}{0}\relax }\@writefile{toc}{\contentsline {subsection}{\numberline {2.4}Latent Dirichet Allocation}{9}{subsection.2.4}}
\abx@aux@cite{Blei08supervisedtopic}
\abx@aux@cite{Blei07thenested}
\@writefile{lof}{\defcounter {refsection}{0}\relax }\@writefile{lof}{\contentsline {figure}{\numberline {1}{\ignorespaces LDA exemplified for document modelling in the context of information retrieval. Image extracted from David M. Blei's presentation at \url  {http://videolectures.net/mlss09uk_blei_tm/}}}{10}{figure.1}}
\newlabel{fig:LDApic}{{1}{10}{LDA exemplified for document modelling in the context of information retrieval. Image extracted from David M. Blei's presentation at \url {http://videolectures.net/mlss09uk_blei_tm/}}{figure.1}{}}
\abx@aux@cite{Asuncion09onsmoothing}
\abx@aux@cite{patterson2013stochastic}
\abx@aux@cite{Minka00estimatinga}
\@writefile{lof}{\defcounter {refsection}{0}\relax }\@writefile{lof}{\contentsline {figure}{\numberline {2}{\ignorespaces Plate notation for LDA.}}{11}{figure.2}}
\newlabel{fig:LDAplate}{{2}{11}{Plate notation for LDA}{figure.2}{}}
\@writefile{toc}{\defcounter {refsection}{0}\relax }\@writefile{toc}{\contentsline {subsection}{\numberline {2.5}Variations on Latent Dirichlet Allocation}{11}{subsection.2.5}}
\@writefile{toc}{\defcounter {refsection}{0}\relax }\@writefile{toc}{\contentsline {section}{\numberline {3}Approach}{13}{section.3}}
\newlabel{sec:approach}{{3}{13}{Approach}{section.3}{}}
\@writefile{toc}{\defcounter {refsection}{0}\relax }\@writefile{toc}{\contentsline {subsection}{\numberline {3.1}Selected domains}{13}{subsection.3.1}}
\@writefile{toc}{\defcounter {refsection}{0}\relax }\@writefile{toc}{\contentsline {subsubsection}{\numberline {3.1.1}Wikipedia articles}{13}{subsubsection.3.1.1}}
\abx@aux@cite{Christidis_exploringcustomer}
\@writefile{lof}{\defcounter {refsection}{0}\relax }\@writefile{lof}{\contentsline {figure}{\numberline {3}{\ignorespaces Table containing some basic statistics about the Wikipedia dataset we have used for this work.}}{14}{figure.3}}
\newlabel{fig:WikiTable}{{3}{14}{Table containing some basic statistics about the Wikipedia dataset we have used for this work}{figure.3}{}}
\@writefile{toc}{\defcounter {refsection}{0}\relax }\@writefile{toc}{\contentsline {subsubsection}{\numberline {3.1.2}Market basket analysis}{14}{subsubsection.3.1.2}}
\@writefile{lof}{\defcounter {refsection}{0}\relax }\@writefile{lof}{\contentsline {figure}{\numberline {4}{\ignorespaces Plot showing the number of documents having a particular number of words within them. The mode of the distribution is 18.}}{15}{figure.4}}
\newlabel{fig:WikiDist}{{4}{15}{Plot showing the number of documents having a particular number of words within them. The mode of the distribution is 18}{figure.4}{}}
\@writefile{lof}{\defcounter {refsection}{0}\relax }\@writefile{lof}{\contentsline {figure}{\numberline {5}{\ignorespaces Table containing some basic statistics about the market basket analysis dataset we have used for this work.}}{16}{figure.5}}
\newlabel{fig:MBAtable}{{5}{16}{Table containing some basic statistics about the market basket analysis dataset we have used for this work}{figure.5}{}}
\@writefile{lof}{\defcounter {refsection}{0}\relax }\@writefile{lof}{\contentsline {figure}{\numberline {6}{\ignorespaces Plot showing the distribution of the number of products per transaction for our market basket analysis dataset. The mode of the distribution is 1.}}{16}{figure.6}}
\newlabel{fig:MBAdist}{{6}{16}{Plot showing the distribution of the number of products per transaction for our market basket analysis dataset. The mode of the distribution is 1}{figure.6}{}}
\@writefile{toc}{\defcounter {refsection}{0}\relax }\@writefile{toc}{\contentsline {subsubsection}{\numberline {3.1.3}Food recipes}{16}{subsubsection.3.1.3}}
\@writefile{lof}{\defcounter {refsection}{0}\relax }\@writefile{lof}{\contentsline {figure}{\numberline {7}{\ignorespaces Table containing some basic statistics about the food recipe dataset we have used for this work. The mode of the distribution is 8.}}{17}{figure.7}}
\newlabel{fig:RecipesTable}{{7}{17}{Table containing some basic statistics about the food recipe dataset we have used for this work. The mode of the distribution is 8}{figure.7}{}}
\@writefile{lof}{\defcounter {refsection}{0}\relax }\@writefile{lof}{\contentsline {figure}{\numberline {8}{\ignorespaces Plot showing the distribution of the number of ingredients per recipe for our food recipe dataset.}}{17}{figure.8}}
\@writefile{toc}{\defcounter {refsection}{0}\relax }\@writefile{toc}{\contentsline {subsection}{\numberline {3.2}Model definition}{17}{subsection.3.2}}
\@writefile{toc}{\defcounter {refsection}{0}\relax }\@writefile{toc}{\contentsline {subsubsection}{\numberline {3.2.1}Corpus-specific distributions}{18}{subsubsection.3.2.1}}
\@writefile{lof}{\defcounter {refsection}{0}\relax }\@writefile{lof}{\contentsline {figure}{\numberline {9}{\ignorespaces Plate notation for the \emph  {corpus-specific distributions} model.}}{19}{figure.9}}
\newlabel{fig:Level0plate}{{9}{19}{Plate notation for the \emph {corpus-specific distributions} model}{figure.9}{}}
\@writefile{toc}{\defcounter {refsection}{0}\relax }\@writefile{toc}{\contentsline {subsubsection}{\numberline {3.2.2}Document-specific distributions}{21}{subsubsection.3.2.2}}
\@writefile{lof}{\defcounter {refsection}{0}\relax }\@writefile{lof}{\contentsline {figure}{\numberline {10}{\ignorespaces Plate notation for the \emph  {document-specific distributions} model.}}{22}{figure.10}}
\newlabel{fig:Level1plate}{{10}{22}{Plate notation for the \emph {document-specific distributions} model}{figure.10}{}}
\@writefile{toc}{\defcounter {refsection}{0}\relax }\@writefile{toc}{\contentsline {subsubsection}{\numberline {3.2.3}Mixed distributions}{23}{subsubsection.3.2.3}}
\@writefile{lof}{\defcounter {refsection}{0}\relax }\@writefile{lof}{\contentsline {figure}{\numberline {11}{\ignorespaces Plate notation for the \emph  {mixed distributions} model.}}{25}{figure.11}}
\newlabel{fig:MixedPlate}{{11}{25}{Plate notation for the \emph {mixed distributions} model}{figure.11}{}}
\@writefile{toc}{\defcounter {refsection}{0}\relax }\@writefile{toc}{\contentsline {subsubsection}{\numberline {3.2.4}Inference}{26}{subsubsection.3.2.4}}
\abx@aux@cite{LDAParams}
\@writefile{toc}{\defcounter {refsection}{0}\relax }\@writefile{toc}{\contentsline {subsubsection}{\numberline {3.2.5}Training}{28}{subsubsection.3.2.5}}
\@writefile{toc}{\defcounter {refsection}{0}\relax }\@writefile{toc}{\contentsline {paragraph}{\numberline {3.2.5.1}Corpus-specific distributions}{29}{paragraph.3.2.5.1}}
\abx@aux@cite{LDAWiki}
\@writefile{toc}{\defcounter {refsection}{0}\relax }\@writefile{toc}{\contentsline {paragraph}{\numberline {3.2.5.2}Document-specific distributions}{32}{paragraph.3.2.5.2}}
\@writefile{toc}{\defcounter {refsection}{0}\relax }\@writefile{toc}{\contentsline {paragraph}{\numberline {3.2.5.3}Mixed distributions}{32}{paragraph.3.2.5.3}}
\@writefile{toc}{\defcounter {refsection}{0}\relax }\@writefile{toc}{\contentsline {subsection}{\numberline {3.3}Model implementation}{36}{subsection.3.3}}
\@writefile{toc}{\defcounter {refsection}{0}\relax }\@writefile{toc}{\contentsline {subsection}{\numberline {3.4}Model evaluation}{39}{subsection.3.4}}
\@writefile{toc}{\defcounter {refsection}{0}\relax }\@writefile{toc}{\contentsline {subsubsection}{\numberline {3.4.1}Perplexity}{39}{subsubsection.3.4.1}}
\@writefile{toc}{\defcounter {refsection}{0}\relax }\@writefile{toc}{\contentsline {subsubsection}{\numberline {3.4.2}Inverse accuracy}{40}{subsubsection.3.4.2}}
\@writefile{toc}{\defcounter {refsection}{0}\relax }\@writefile{toc}{\contentsline {section}{\numberline {4}Experiments}{41}{section.4}}
\newlabel{sec:experiments}{{4}{41}{Experiments}{section.4}{}}
\@writefile{toc}{\defcounter {refsection}{0}\relax }\@writefile{toc}{\contentsline {subsection}{\numberline {4.1}LDA versus baselines}{41}{subsection.4.1}}
\@writefile{toc}{\defcounter {refsection}{0}\relax }\@writefile{toc}{\contentsline {subsection}{\numberline {4.2}LDA performance versus container length}{41}{subsection.4.2}}
\newlabel{RF1}{42}
\@writefile{lof}{\defcounter {refsection}{0}\relax }\@writefile{lof}{\contentsline {figure}{\numberline {12}{\ignorespaces Comparison between Latent Dirichlet Allocation and a few baselines for all the domains and metrics of interest.}}{42}{figure.12}}
\newlabel{fig:LDAbaselines}{{12}{42}{Comparison between Latent Dirichlet Allocation and a few baselines for all the domains and metrics of interest}{figure.12}{}}
\@writefile{toc}{\defcounter {refsection}{0}\relax }\@writefile{toc}{\contentsline {subsection}{\numberline {4.3}LDA versus mixture of topic models}{43}{subsection.4.3}}
\newlabel{RF2}{44}
\@writefile{lof}{\defcounter {refsection}{0}\relax }\@writefile{lof}{\contentsline {figure}{\numberline {13}{\ignorespaces Comparison of the inverse accuracy values obtained for Latent Dirichlet Allocation as a function of the number of topics used and the number of ingredients per recipe on the food recipes dataset.}}{44}{figure.13}}
\newlabel{fig:LDARecipes}{{13}{44}{Comparison of the inverse accuracy values obtained for Latent Dirichlet Allocation as a function of the number of topics used and the number of ingredients per recipe on the food recipes dataset}{figure.13}{}}
\newlabel{RF3}{45}
\@writefile{lof}{\defcounter {refsection}{0}\relax }\@writefile{lof}{\contentsline {figure}{\numberline {14}{\ignorespaces Comparison of the inverse accuracy values obtained for Latent Dirichlet Allocation as a function of the number of topics used and the number of articles per transaction on the shop dataset.}}{45}{figure.14}}
\newlabel{fig:LDAMarket}{{14}{45}{Comparison of the inverse accuracy values obtained for Latent Dirichlet Allocation as a function of the number of topics used and the number of articles per transaction on the shop dataset}{figure.14}{}}
\newlabel{RF4}{46}
\@writefile{lof}{\defcounter {refsection}{0}\relax }\@writefile{lof}{\contentsline {figure}{\numberline {15}{\ignorespaces Comparison of the inverse accuracy values obtained for Latent Dirichlet Allocation as a function of the number of topics used and the number of words per article on the Wikipedia articles dataset.}}{46}{figure.15}}
\newlabel{fig:LDAWikipedia}{{15}{46}{Comparison of the inverse accuracy values obtained for Latent Dirichlet Allocation as a function of the number of topics used and the number of words per article on the Wikipedia articles dataset}{figure.15}{}}
\newlabel{RF5}{47}
\@writefile{lof}{\defcounter {refsection}{0}\relax }\@writefile{lof}{\contentsline {figure}{\numberline {16}{\ignorespaces Comparison between Latent Dirichlet Allocation and our mixture of topic model for all the domains and metrics of interest.}}{47}{figure.16}}
\newlabel{fig:MixturesBasic}{{16}{47}{Comparison between Latent Dirichlet Allocation and our mixture of topic model for all the domains and metrics of interest}{figure.16}{}}
\newlabel{RF6}{48}
\@writefile{lof}{\defcounter {refsection}{0}\relax }\@writefile{lof}{\contentsline {figure}{\numberline {17}{\ignorespaces Comparison of the inverse accuracy values obtained for our mixture of topic models as a function of the number of ingredients per recipe on the recipes dataset. The mixture model is compared against its standalone components.}}{48}{figure.17}}
\newlabel{fig:resultsRecipesK10}{{17}{48}{Comparison of the inverse accuracy values obtained for our mixture of topic models as a function of the number of ingredients per recipe on the recipes dataset. The mixture model is compared against its standalone components}{figure.17}{}}
\newlabel{RF7}{49}
\@writefile{lof}{\defcounter {refsection}{0}\relax }\@writefile{lof}{\contentsline {figure}{\numberline {18}{\ignorespaces Comparison of the inverse accuracy values obtained for our mixture of topic models as a function of the number of articles per transaction on the shop dataset. The mixture model is compared against its standalone components.}}{49}{figure.18}}
\newlabel{fig:resultsMarketK10}{{18}{49}{Comparison of the inverse accuracy values obtained for our mixture of topic models as a function of the number of articles per transaction on the shop dataset. The mixture model is compared against its standalone components}{figure.18}{}}
\newlabel{RF8}{50}
\@writefile{lof}{\defcounter {refsection}{0}\relax }\@writefile{lof}{\contentsline {figure}{\numberline {19}{\ignorespaces Comparison of the inverse accuracy values obtained for our mixture of topic models as a function of the number of words per article on the Wikipedia articles dataset. The mixture model is compared against its standalone components.}}{50}{figure.19}}
\newlabel{fig:resultsWikipediaK10}{{19}{50}{Comparison of the inverse accuracy values obtained for our mixture of topic models as a function of the number of words per article on the Wikipedia articles dataset. The mixture model is compared against its standalone components}{figure.19}{}}
\@writefile{lof}{\defcounter {refsection}{0}\relax }\@writefile{lof}{\contentsline {figure}{\numberline {20}{\ignorespaces Probability of the more complex mixture component being selected as a function of the length of the containers. Each graph shows a run of the algorithm using a different number of topics.}}{51}{figure.20}}
\newlabel{fig:modesProbs}{{20}{51}{Probability of the more complex mixture component being selected as a function of the length of the containers. Each graph shows a run of the algorithm using a different number of topics}{figure.20}{}}
\@writefile{toc}{\defcounter {refsection}{0}\relax }\@writefile{toc}{\contentsline {section}{\numberline {5}Discussion of results}{51}{section.5}}
\newlabel{sec:discussion}{{5}{51}{Discussion of results}{section.5}{}}
\@writefile{toc}{\defcounter {refsection}{0}\relax }\@writefile{toc}{\contentsline {section}{\numberline {6}Conclusions}{54}{section.6}}
\newlabel{sec:conclusions}{{6}{54}{Conclusions}{section.6}{}}
\zref@newlabel{LastPage}{\default{6}\page{57}\abspage{57}}
